Week 2 Lecture: Hello R!
…
In the last class, we went through a couple of ways to extract certain variable/observation from the data frame in basic R. The data frame you’ll work with today is called datasaurus_dozen and it’s in the datasauRus package. Actually, this single data frame contains 13 datasets. The different datasets are marked by the dataset variable.

#Extract the second observation in the data
datasaurus_dozen[2,]

# A tibble: 1 × 3
  dataset     x     y
  <chr>   <dbl> <dbl>
1 dino     51.5  96.0

#Extract the second variable in the data
datasaurus_dozen[,2]

# A tibble: 1,846 × 1
       x
   <dbl>
 1  55.4
 2  51.5
 3  46.2
 4  42.8
 5  40.8
 6  38.7
 7  35.6
 8  33.1
 9  29.0
10  26.2
# ℹ 1,836 more rows
…
